[
  {
    "block": {"Properties":{"persistent":"false","distance":"7"},"Name":"minecraft:spruce_leaves"},
    "x": -1,
    "y": 2,
    "z": -1
  },
  {
    "block": {"Properties":{"axis":"y"},"Name":"minecraft:spruce_log"},
    "x": 0,
    "y": 4,
    "z": 0
  },
  {
    "block": {"Properties":{"persistent":"false","distance":"7"},"Name":"minecraft:spruce_leaves"},
    "x": 0,
    "y": 2,
    "z": -1
  },
  {
    "block": {"Properties":{"persistent":"false","distance":"7"},"Name":"minecraft:spruce_leaves"},
    "x": 1,
    "y": 4,
    "z": 0
  },
  {
    "block": {"Properties":{"persistent":"false","distance":"7"},"Name":"minecraft:spruce_leaves"},
    "x": -2,
    "y": 4,
    "z": 0
  },
  {
    "block": {"Properties":{"persistent":"false","distance":"7"},"Name":"minecraft:spruce_leaves"},
    "x": -2,
    "y": 2,
    "z": -1
  },
  {
    "block": {"Properties":{"persistent":"false","distance":"7"},"Name":"minecraft:spruce_leaves"},
    "x": -1,
    "y": 4,
    "z": 0
  },
  {
    "block": {"Properties":{"persistent":"false","distance":"7"},"Name":"minecraft:spruce_leaves"},
    "x": 2,
    "y": 1,
    "z": 3
  },
  {
    "block": {"Properties":{"persistent":"false","distance":"7"},"Name":"minecraft:spruce_leaves"},
    "x": 0,
    "y": 1,
    "z": 3
  },
  {
    "block": {"Properties":{"persistent":"false","distance":"7"},"Name":"minecraft:spruce_leaves"},
    "x": 1,
    "y": 1,
    "z": 3
  },
  {
    "block": {"Properties":{"persistent":"false","distance":"7"},"Name":"minecraft:spruce_leaves"},
    "x": 2,
    "y": 1,
    "z": -1
  },
  {
    "block": {"Properties":{"persistent":"false","distance":"7"},"Name":"minecraft:spruce_leaves"},
    "x": -2,
    "y": 1,
    "z": 3
  },
  {
    "block": {"Properties":{"persistent":"false","distance":"7"},"Name":"minecraft:spruce_leaves"},
    "x": 3,
    "y": 1,
    "z": -1
  },
  {
    "block": {"Properties":{"persistent":"false","distance":"7"},"Name":"minecraft:spruce_leaves"},
    "x": -1,
    "y": 1,
    "z": 3
  },
  {
    "block": {"Properties":{"persistent":"false","distance":"7"},"Name":"minecraft:spruce_leaves"},
    "x": 0,
    "y": 1,
    "z": -1
  },
  {
    "block": {"Properties":{"persistent":"false","distance":"7"},"Name":"minecraft:spruce_leaves"},
    "x": 1,
    "y": 3,
    "z": 0
  },
  {
    "block": {"Properties":{"persistent":"false","distance":"7"},"Name":"minecraft:spruce_leaves"},
    "x": 1,
    "y": 1,
    "z": -1
  },
  {
    "block": {"Properties":{"persistent":"false","distance":"7"},"Name":"minecraft:spruce_leaves"},
    "x": -2,
    "y": 1,
    "z": -1
  },
  {
    "block": {"Properties":{"persistent":"false","distance":"7"},"Name":"minecraft:spruce_leaves"},
    "x": -1,
    "y": 3,
    "z": 0
  },
  {
    "block": {"Properties":{"persistent":"false","distance":"7"},"Name":"minecraft:spruce_leaves"},
    "x": 0,
    "y": 5,
    "z": 1
  },
  {
    "block": {"Properties":{"persistent":"false","distance":"7"},"Name":"minecraft:spruce_leaves"},
    "x": -1,
    "y": 1,
    "z": -1
  },
  {
    "block": {"Properties":{"axis":"y"},"Name":"minecraft:spruce_log"},
    "x": 0,
    "y": 3,
    "z": 0
  },
  {
    "block": {"Properties":{"persistent":"false","distance":"7"},"Name":"minecraft:spruce_leaves"},
    "x": -3,
    "y": 1,
    "z": -1
  },
  {
    "block": {"Properties":{"persistent":"false","distance":"7"},"Name":"minecraft:spruce_leaves"},
    "x": 2,
    "y": 2,
    "z": 0
  },
  {
    "block": {"Properties":{"axis":"y"},"Name":"minecraft:spruce_log"},
    "x": 0,
    "y": 2,
    "z": 0
  },
  {
    "block": {"Properties":{"persistent":"false","distance":"7"},"Name":"minecraft:spruce_leaves"},
    "x": 1,
    "y": 4,
    "z": 1
  },
  {
    "block": {"Properties":{"persistent":"false","distance":"7"},"Name":"minecraft:spruce_leaves"},
    "x": 1,
    "y": 2,
    "z": 0
  },
  {
    "block": {"Properties":{"persistent":"false","distance":"7"},"Name":"minecraft:spruce_leaves"},
    "x": 2,
    "y": 4,
    "z": 1
  },
  {
    "block": {"Properties":{"persistent":"false","distance":"7"},"Name":"minecraft:spruce_leaves"},
    "x": 0,
    "y": 2,
    "z": -2
  },
  {
    "block": {"Properties":{"persistent":"false","distance":"7"},"Name":"minecraft:spruce_leaves"},
    "x": 1,
    "y": 4,
    "z": -1
  },
  {
    "block": {"Properties":{"persistent":"false","distance":"7"},"Name":"minecraft:spruce_leaves"},
    "x": 1,
    "y": 2,
    "z": -2
  },
  {
    "block": {"Properties":{"persistent":"false","distance":"7"},"Name":"minecraft:spruce_leaves"},
    "x": 2,
    "y": 4,
    "z": -1
  },
  {
    "block": {"Properties":{"persistent":"false","distance":"7"},"Name":"minecraft:spruce_leaves"},
    "x": -1,
    "y": 4,
    "z": -1
  },
  {
    "block": {"Properties":{"persistent":"false","distance":"7"},"Name":"minecraft:spruce_leaves"},
    "x": 0,
    "y": 6,
    "z": 0
  },
  {
    "block": {"Properties":{"persistent":"false","distance":"7"},"Name":"minecraft:spruce_leaves"},
    "x": -1,
    "y": 2,
    "z": -2
  },
  {
    "block": {"Properties":{"persistent":"false","distance":"7"},"Name":"minecraft:spruce_leaves"},
    "x": 0,
    "y": 4,
    "z": -1
  },
  {
    "block": {"Properties":{"persistent":"false","distance":"7"},"Name":"minecraft:spruce_leaves"},
    "x": -2,
    "y": 4,
    "z": -1
  },
  {
    "block": {"Properties":{"persistent":"false","distance":"7"},"Name":"minecraft:spruce_leaves"},
    "x": 3,
    "y": 1,
    "z": 2
  },
  {
    "block": {"Properties":{"persistent":"false","distance":"7"},"Name":"minecraft:spruce_leaves"},
    "x": 1,
    "y": 1,
    "z": 2
  },
  {
    "block": {"Properties":{"persistent":"false","distance":"7"},"Name":"minecraft:spruce_leaves"},
    "x": 2,
    "y": 1,
    "z": 2
  },
  {
    "block": {"Properties":{"persistent":"false","distance":"7"},"Name":"minecraft:spruce_leaves"},
    "x": 3,
    "y": 1,
    "z": -2
  },
  {
    "block": {"Properties":{"persistent":"false","distance":"7"},"Name":"minecraft:spruce_leaves"},
    "x": -1,
    "y": 1,
    "z": 2
  },
  {
    "block": {"Properties":{"persistent":"false","distance":"7"},"Name":"minecraft:spruce_leaves"},
    "x": 0,
    "y": 1,
    "z": 2
  },
  {
    "block": {"Properties":{"persistent":"false","distance":"7"},"Name":"minecraft:spruce_leaves"},
    "x": 1,
    "y": 1,
    "z": -2
  },
  {
    "block": {"Properties":{"persistent":"false","distance":"7"},"Name":"minecraft:spruce_leaves"},
    "x": -3,
    "y": 1,
    "z": 2
  },
  {
    "block": {"Properties":{"persistent":"false","distance":"7"},"Name":"minecraft:spruce_leaves"},
    "x": 2,
    "y": 1,
    "z": -2
  },
  {
    "block": {"Properties":{"persistent":"false","distance":"7"},"Name":"minecraft:spruce_leaves"},
    "x": -2,
    "y": 1,
    "z": 2
  },
  {
    "block": {"Properties":{"persistent":"false","distance":"7"},"Name":"minecraft:spruce_leaves"},
    "x": -1,
    "y": 1,
    "z": -2
  },
  {
    "block": {"Properties":{"persistent":"false","distance":"7"},"Name":"minecraft:spruce_leaves"},
    "x": 0,
    "y": 3,
    "z": -1
  },
  {
    "block": {"Properties":{"persistent":"false","distance":"7"},"Name":"minecraft:spruce_leaves"},
    "x": 1,
    "y": 5,
    "z": 0
  },
  {
    "block": {"Properties":{"persistent":"false","distance":"7"},"Name":"minecraft:spruce_leaves"},
    "x": 0,
    "y": 1,
    "z": -2
  },
  {
    "block": {"Properties":{"persistent":"false","distance":"7"},"Name":"minecraft:spruce_leaves"},
    "x": -3,
    "y": 1,
    "z": -2
  },
  {
    "block": {"Properties":{"persistent":"false","distance":"7"},"Name":"minecraft:spruce_leaves"},
    "x": -1,
    "y": 5,
    "z": 0
  },
  {
    "block": {"Properties":{"persistent":"false","distance":"7"},"Name":"minecraft:spruce_leaves"},
    "x": 0,
    "y": 7,
    "z": 1
  },
  {
    "block": {"Properties":{"persistent":"false","distance":"7"},"Name":"minecraft:spruce_leaves"},
    "x": -2,
    "y": 1,
    "z": -2
  },
  {
    "block": {"Properties":{"axis":"y"},"Name":"minecraft:spruce_log"},
    "x": 0,
    "y": 5,
    "z": 0
  },
  {
    "block": {"Properties":{"persistent":"false","distance":"7"},"Name":"minecraft:spruce_leaves"},
    "x": 1,
    "y": 2,
    "z": -1
  },
  {
    "block": {"Properties":{"persistent":"false","distance":"7"},"Name":"minecraft:spruce_leaves"},
    "x": 2,
    "y": 4,
    "z": 0
  },
  {
    "block": {"Properties":{"persistent":"false","distance":"7"},"Name":"minecraft:spruce_leaves"},
    "x": 2,
    "y": 2,
    "z": -1
  },
  {
    "block": {"Properties":{"persistent":"false","distance":"7"},"Name":"minecraft:spruce_leaves"},
    "x": -2,
    "y": 2,
    "z": 1
  },
  {
    "block": {"Properties":{"persistent":"false","distance":"7"},"Name":"minecraft:spruce_leaves"},
    "x": -1,
    "y": 4,
    "z": 2
  },
  {
    "block": {"Properties":{"persistent":"false","distance":"7"},"Name":"minecraft:spruce_leaves"},
    "x": 0,
    "y": 4,
    "z": -2
  },
  {
    "block": {"Properties":{"persistent":"false","distance":"7"},"Name":"minecraft:spruce_leaves"},
    "x": 1,
    "y": 4,
    "z": -2
  },
  {
    "block": {"Properties":{"persistent":"false","distance":"7"},"Name":"minecraft:spruce_leaves"},
    "x": 0,
    "y": 8,
    "z": 0
  },
  {
    "block": {"Properties":{"persistent":"false","distance":"7"},"Name":"minecraft:spruce_leaves"},
    "x": -1,
    "y": 4,
    "z": -2
  },
  {
    "block": {"Properties":{"persistent":"false","distance":"7"},"Name":"minecraft:spruce_leaves"},
    "x": 2,
    "y": 1,
    "z": 1
  },
  {
    "block": {"Properties":{"persistent":"false","distance":"7"},"Name":"minecraft:spruce_leaves"},
    "x": 3,
    "y": 1,
    "z": 1
  },
  {
    "block": {"Properties":{"persistent":"false","distance":"7"},"Name":"minecraft:spruce_leaves"},
    "x": 0,
    "y": 1,
    "z": 1
  },
  {
    "block": {"Properties":{"persistent":"false","distance":"7"},"Name":"minecraft:spruce_leaves"},
    "x": 1,
    "y": 1,
    "z": 1
  },
  {
    "block": {"Properties":{"persistent":"false","distance":"7"},"Name":"minecraft:spruce_leaves"},
    "x": 2,
    "y": 1,
    "z": -3
  },
  {
    "block": {"Properties":{"persistent":"false","distance":"7"},"Name":"minecraft:spruce_leaves"},
    "x": -2,
    "y": 1,
    "z": 1
  },
  {
    "block": {"Properties":{"persistent":"false","distance":"7"},"Name":"minecraft:spruce_leaves"},
    "x": -1,
    "y": 1,
    "z": 1
  },
  {
    "block": {"Properties":{"persistent":"false","distance":"7"},"Name":"minecraft:spruce_leaves"},
    "x": 0,
    "y": 1,
    "z": -3
  },
  {
    "block": {"Properties":{"persistent":"false","distance":"7"},"Name":"minecraft:spruce_leaves"},
    "x": 1,
    "y": 1,
    "z": -3
  },
  {
    "block": {"Properties":{"persistent":"false","distance":"7"},"Name":"minecraft:spruce_leaves"},
    "x": -3,
    "y": 1,
    "z": 1
  },
  {
    "block": {"Properties":{"persistent":"false","distance":"7"},"Name":"minecraft:spruce_leaves"},
    "x": -2,
    "y": 1,
    "z": -3
  },
  {
    "block": {"Properties":{"persistent":"false","distance":"7"},"Name":"minecraft:spruce_leaves"},
    "x": 0,
    "y": 5,
    "z": -1
  },
  {
    "block": {"Properties":{"persistent":"false","distance":"7"},"Name":"minecraft:spruce_leaves"},
    "x": 1,
    "y": 7,
    "z": 0
  },
  {
    "block": {"Properties":{"persistent":"false","distance":"7"},"Name":"minecraft:spruce_leaves"},
    "x": -1,
    "y": 1,
    "z": -3
  },
  {
    "block": {"Properties":{"persistent":"false","distance":"7"},"Name":"minecraft:spruce_leaves"},
    "x": -1,
    "y": 7,
    "z": 0
  },
  {
    "block": {"Properties":{"persistent":"false","distance":"7"},"Name":"minecraft:spruce_leaves"},
    "x": 0,
    "y": 7,
    "z": 0
  },
  {
    "block": {"Properties":{"persistent":"false","distance":"7"},"Name":"minecraft:spruce_leaves"},
    "x": 0,
    "y": 2,
    "z": 2
  },
  {
    "block": {"Properties":{"persistent":"false","distance":"7"},"Name":"minecraft:spruce_leaves"},
    "x": 1,
    "y": 2,
    "z": 2
  },
  {
    "block": {"Properties":{"persistent":"false","distance":"7"},"Name":"minecraft:spruce_leaves"},
    "x": -1,
    "y": 2,
    "z": 2
  },
  {
    "block": {"Properties":{"persistent":"false","distance":"7"},"Name":"minecraft:spruce_leaves"},
    "x": -2,
    "y": 2,
    "z": 0
  },
  {
    "block": {"Properties":{"persistent":"false","distance":"7"},"Name":"minecraft:spruce_leaves"},
    "x": -1,
    "y": 4,
    "z": 1
  },
  {
    "block": {"Properties":{"persistent":"false","distance":"7"},"Name":"minecraft:spruce_leaves"},
    "x": -1,
    "y": 2,
    "z": 0
  },
  {
    "block": {"Properties":{"persistent":"false","distance":"7"},"Name":"minecraft:spruce_leaves"},
    "x": 0,
    "y": 4,
    "z": 1
  },
  {
    "block": {"Properties":{"persistent":"false","distance":"7"},"Name":"minecraft:spruce_leaves"},
    "x": -2,
    "y": 4,
    "z": 1
  },
  {
    "block": {"Properties":{"persistent":"false","distance":"7"},"Name":"minecraft:spruce_leaves"},
    "x": 3,
    "y": 1,
    "z": 0
  },
  {
    "block": {"Properties":{"persistent":"false","distance":"7"},"Name":"minecraft:spruce_leaves"},
    "x": 1,
    "y": 1,
    "z": 0
  },
  {
    "block": {"Properties":{"persistent":"false","distance":"7"},"Name":"minecraft:spruce_leaves"},
    "x": 2,
    "y": 1,
    "z": 0
  },
  {
    "block": {"Properties":{"persistent":"false","distance":"7"},"Name":"minecraft:spruce_leaves"},
    "x": -1,
    "y": 1,
    "z": 0
  },
  {
    "block": {"Properties":{"persistent":"false","distance":"7"},"Name":"minecraft:spruce_leaves"},
    "x": 0,
    "y": 3,
    "z": 1
  },
  {
    "block": {"Properties":{"axis":"y"},"Name":"minecraft:spruce_log"},
    "x": 0,
    "y": 1,
    "z": 0
  },
  {
    "block": {"Properties":{"persistent":"false","distance":"7"},"Name":"minecraft:spruce_leaves"},
    "x": -3,
    "y": 1,
    "z": 0
  },
  {
    "block": {"Properties":{"persistent":"false","distance":"7"},"Name":"minecraft:spruce_leaves"},
    "x": -2,
    "y": 1,
    "z": 0
  },
  {
    "block": {"Properties":{"persistent":"false","distance":"7"},"Name":"minecraft:spruce_leaves"},
    "x": 0,
    "y": 7,
    "z": -1
  },
  {
    "block": {"Properties":{"persistent":"false","distance":"7"},"Name":"minecraft:spruce_leaves"},
    "x": 1,
    "y": 2,
    "z": 1
  },
  {
    "block": {"Properties":{"persistent":"false","distance":"7"},"Name":"minecraft:spruce_leaves"},
    "x": 2,
    "y": 2,
    "z": 1
  },
  {
    "block": {"Properties":{"persistent":"false","distance":"7"},"Name":"minecraft:spruce_leaves"},
    "x": -1,
    "y": 2,
    "z": 1
  },
  {
    "block": {"Properties":{"persistent":"false","distance":"7"},"Name":"minecraft:spruce_leaves"},
    "x": 0,
    "y": 4,
    "z": 2
  },
  {
    "block": {"Properties":{"persistent":"false","distance":"7"},"Name":"minecraft:spruce_leaves"},
    "x": 0,
    "y": 2,
    "z": 1
  },
  {
    "block": {"Properties":{"persistent":"false","distance":"7"},"Name":"minecraft:spruce_leaves"},
    "x": 1,
    "y": 4,
    "z": 2
  }
]