{
	"credit": "Made with Blockbench",
	"textures": {
		"0": "tardis:block/brass_monitor",
		"particle": "tardis:block/brass_monitor"
	},
	"elements": [
		{
			"from": [3.85, 6.25, 7.75],
			"to": [12.35, 11.75, 8.75],
			"faces": {
				"north": {"uv": [3.5, 0.125, 6.625, 2.625], "texture": "#0"},
				"east": {"uv": [3.625, 0.125, 3.875, 2.625], "texture": "#0"},
				"south": {"uv": [3.5, 0.125, 6.625, 2.625], "texture": "#0"},
				"west": {"uv": [5.875, 0.125, 6.125, 2.625], "texture": "#0"},
				"up": {"uv": [6.75, 1.125, 3.5, 0.5], "texture": "#0"},
				"down": {"uv": [6.625, 0.25, 3.5, 0.75], "texture": "#0"}
			}
		},
		{
			"from": [1.5, 4, 3],
			"to": [14.5, 14, 3],
			"faces": {
				"north": {"uv": [3.5, 0.25, 6.625, 2.75], "texture": "#0"},
				"east": {"uv": [0, 0, 0, 1.25], "texture": "#0"},
				"south": {"uv": [3.5, 0.25, 6.625, 2.75], "texture": "#0"},
				"west": {"uv": [1.625, 0, 1.625, 1.25], "texture": "#0"},
				"up": {"uv": [1.625, 0, 0, 0], "texture": "#0"},
				"down": {"uv": [3.25, 0, 1.625, 0], "texture": "#0"}
			}
		},
		{
			"from": [11.1, 12.9, 8.6],
			"to": [11.6, 14.4, 9.4],
			"faces": {
				"north": {"uv": [0.625, 6.25, 0.625, 6.375], "texture": "#0"},
				"east": {"uv": [0.625, 5.875, 0.625, 6], "texture": "#0"},
				"south": {"uv": [0.75, 6.125, 0.75, 6.25], "texture": "#0"},
				"west": {"uv": [0.625, 6.25, 0.625, 6.375], "texture": "#0"},
				"up": {"uv": [0.875, 6.5, 0.875, 6.5], "texture": "#0"},
				"down": {"uv": [1.5, 8.75, 1.5, 8.75], "texture": "#0"}
			}
		},
		{
			"from": [10.95, 12.9, 8.75],
			"to": [11.75, 14.4, 9.25],
			"faces": {
				"north": {"uv": [0.625, 6.25, 0.625, 6.375], "texture": "#0"},
				"east": {"uv": [0.375, 6.125, 0.375, 6.25], "texture": "#0"},
				"south": {"uv": [0.875, 6.25, 0.875, 6.375], "texture": "#0"},
				"west": {"uv": [0.75, 6, 0.75, 6.125], "texture": "#0"},
				"up": {"uv": [0.75, 6.125, 0.75, 6.125], "texture": "#0"},
				"down": {"uv": [1, 8.75, 1, 8.75], "texture": "#0"}
			}
		},
		{
			"from": [11.1, 12.55, 8.75],
			"to": [11.6, 14.55, 9.25],
			"faces": {
				"north": {"uv": [0.625, 6.25, 0.625, 6.375], "texture": "#0"},
				"east": {"uv": [0.5, 6.125, 0.5, 6.125], "texture": "#0"},
				"south": {"uv": [0.375, 6.375, 0.375, 6.375], "texture": "#0"},
				"west": {"uv": [0.625, 6, 0.625, 6], "texture": "#0"},
				"up": {"uv": [0.625, 6.25, 0.625, 6.25], "texture": "#0"},
				"down": {"uv": [2, 8.75, 2, 8.75], "texture": "#0"}
			}
		},
		{
			"from": [7.85, 12.9, 8.6],
			"to": [8.35, 14.4, 9.4],
			"faces": {
				"north": {"uv": [0.625, 6.25, 0.625, 6.375], "texture": "#0"},
				"east": {"uv": [0.625, 5.875, 0.625, 6], "texture": "#0"},
				"south": {"uv": [0.75, 6.125, 0.75, 6.25], "texture": "#0"},
				"west": {"uv": [0.625, 6.25, 0.625, 6.375], "texture": "#0"},
				"up": {"uv": [0.875, 6.5, 0.875, 6.5], "texture": "#0"},
				"down": {"uv": [1.5, 8.75, 1.5, 8.75], "texture": "#0"}
			}
		},
		{
			"from": [7.7, 12.9, 8.75],
			"to": [8.5, 14.4, 9.25],
			"faces": {
				"north": {"uv": [0.625, 6.25, 0.625, 6.375], "texture": "#0"},
				"east": {"uv": [0.375, 6.125, 0.375, 6.25], "texture": "#0"},
				"south": {"uv": [0.875, 6.25, 0.875, 6.375], "texture": "#0"},
				"west": {"uv": [0.75, 6, 0.75, 6.125], "texture": "#0"},
				"up": {"uv": [0.75, 6.125, 0.75, 6.125], "texture": "#0"},
				"down": {"uv": [1, 8.75, 1, 8.75], "texture": "#0"}
			}
		},
		{
			"from": [7.85, 12.55, 8.75],
			"to": [8.35, 14.55, 9.25],
			"faces": {
				"north": {"uv": [0.625, 6.25, 0.625, 6.375], "texture": "#0"},
				"east": {"uv": [0.5, 6.125, 0.5, 6.125], "texture": "#0"},
				"south": {"uv": [0.375, 6.375, 0.375, 6.375], "texture": "#0"},
				"west": {"uv": [0.625, 6, 0.625, 6], "texture": "#0"},
				"up": {"uv": [0.625, 6.25, 0.625, 6.25], "texture": "#0"},
				"down": {"uv": [2, 8.75, 2, 8.75], "texture": "#0"}
			}
		},
		{
			"from": [4.6, 12.9, 8.6],
			"to": [5.1, 14.4, 9.4],
			"faces": {
				"north": {"uv": [0.625, 6.25, 0.625, 6.375], "texture": "#0"},
				"east": {"uv": [0.625, 5.875, 0.625, 6], "texture": "#0"},
				"south": {"uv": [0.75, 6.125, 0.75, 6.25], "texture": "#0"},
				"west": {"uv": [0.625, 6.25, 0.625, 6.375], "texture": "#0"},
				"up": {"uv": [0.875, 6.5, 0.875, 6.5], "texture": "#0"},
				"down": {"uv": [1.5, 8.75, 1.5, 8.75], "texture": "#0"}
			}
		},
		{
			"from": [4.45, 12.9, 8.75],
			"to": [5.25, 14.4, 9.25],
			"faces": {
				"north": {"uv": [0.625, 6.25, 0.625, 6.375], "texture": "#0"},
				"east": {"uv": [0.375, 6.125, 0.375, 6.25], "texture": "#0"},
				"south": {"uv": [0.875, 6.25, 0.875, 6.375], "texture": "#0"},
				"west": {"uv": [0.75, 6, 0.75, 6.125], "texture": "#0"},
				"up": {"uv": [0.75, 6.125, 0.75, 6.125], "texture": "#0"},
				"down": {"uv": [1, 8.75, 1, 8.75], "texture": "#0"}
			}
		},
		{
			"from": [4.6, 12.55, 8.75],
			"to": [5.1, 14.55, 9.25],
			"faces": {
				"north": {"uv": [0.625, 6.25, 0.625, 6.375], "texture": "#0"},
				"east": {"uv": [0.5, 6.125, 0.5, 6.125], "texture": "#0"},
				"south": {"uv": [0.375, 6.375, 0.375, 6.375], "texture": "#0"},
				"west": {"uv": [0.625, 6, 0.625, 6], "texture": "#0"},
				"up": {"uv": [0.625, 6.25, 0.625, 6.25], "texture": "#0"},
				"down": {"uv": [2, 8.75, 2, 8.75], "texture": "#0"}
			}
		},
		{
			"from": [1, 7.75, 9.5],
			"to": [2, 9.75, 11.5],
			"faces": {
				"north": {"uv": [1.25, 4.125, 1.375, 4.375], "texture": "#0"},
				"east": {"uv": [1, 4.5, 1.25, 4.75], "texture": "#0"},
				"south": {"uv": [0.625, 4.125, 0.75, 4.375], "texture": "#0"},
				"west": {"uv": [1.5, 3.875, 1.75, 4.125], "texture": "#0"},
				"up": {"uv": [1.625, 4.25, 1.5, 4], "texture": "#0"},
				"down": {"uv": [2.125, 3.875, 2, 4.125], "texture": "#0"}
			}
		},
		{
			"from": [1.25, 8.5, 2.75],
			"to": [1.75, 9, 12.25],
			"faces": {
				"north": {"uv": [1.125, 3.5, 1.125, 3.5], "texture": "#0"},
				"east": {"uv": [4.5, 3.625, 5.625, 3.625], "texture": "#0"},
				"south": {"uv": [6.625, 5.125, 6.625, 5.125], "texture": "#0"},
				"west": {"uv": [4.5, 3.75, 5.625, 3.75], "texture": "#0"},
				"up": {"uv": [4.625, 4.5, 4.625, 3.375], "texture": "#0"},
				"down": {"uv": [4, 3.375, 4, 4.5], "texture": "#0"}
			}
		},
		{
			"from": [14.25, 7.75, 9.5],
			"to": [15.25, 9.75, 11.5],
			"faces": {
				"north": {"uv": [1.875, 4.5, 2, 4.75], "texture": "#0"},
				"east": {"uv": [1.875, 4.5, 2.125, 4.75], "texture": "#0"},
				"south": {"uv": [2.25, 4.375, 2.375, 4.625], "texture": "#0"},
				"west": {"uv": [1.875, 4.625, 2.125, 4.875], "texture": "#0"},
				"up": {"uv": [2.625, 4.75, 2.5, 4.5], "texture": "#0"},
				"down": {"uv": [2.75, 4.375, 2.625, 4.625], "texture": "#0"}
			}
		},
		{
			"from": [14.5, 8.5, 2.75],
			"to": [15, 9, 12.25],
			"faces": {
				"north": {"uv": [3.625, 3.5, 3.625, 3.5], "texture": "#0"},
				"east": {"uv": [4.5, 3.625, 5.625, 3.625], "texture": "#0"},
				"south": {"uv": [4.75, 3.5, 4.75, 3.5], "texture": "#0"},
				"west": {"uv": [3.625, 3.5, 4.75, 3.5], "texture": "#0"},
				"up": {"uv": [4.25, 4.625, 4.25, 3.5], "texture": "#0"},
				"down": {"uv": [4.625, 3.625, 4.625, 4.75], "texture": "#0"}
			}
		},
		{
			"from": [1.5, 4, 2.75],
			"to": [2, 14, 3.25],
			"faces": {
				"north": {"uv": [4.375, 3.375, 4.375, 4.625], "texture": "#0"},
				"east": {"uv": [4.875, 3.5, 4.875, 4.75], "texture": "#0"},
				"south": {"uv": [4.875, 3.25, 4.875, 4.5], "texture": "#0"},
				"west": {"uv": [4.125, 3.75, 4.125, 5], "texture": "#0"},
				"up": {"uv": [1.25, 6.125, 1.25, 6.125], "texture": "#0"},
				"down": {"uv": [1.25, 6.125, 1.25, 6.125], "texture": "#0"}
			}
		},
		{
			"from": [14.25, 4, 2.75],
			"to": [14.75, 14, 3.25],
			"faces": {
				"north": {"uv": [6, 3.625, 6, 4.875], "texture": "#0"},
				"east": {"uv": [4.625, 3.25, 4.625, 4.5], "texture": "#0"},
				"south": {"uv": [5.875, 3.5, 5.875, 4.75], "texture": "#0"},
				"west": {"uv": [4.5, 3.625, 4.5, 4.875], "texture": "#0"},
				"up": {"uv": [0, 6.125, 0, 6.125], "texture": "#0"},
				"down": {"uv": [0, 6.125, 0, 6.125], "texture": "#0"}
			}
		},
		{
			"from": [1.5, 14, 2.75],
			"to": [14.75, 14.5, 3.25],
			"faces": {
				"north": {"uv": [3.875, 4, 5.5, 4], "texture": "#0"},
				"east": {"uv": [0, 3.625, 0, 3.625], "texture": "#0"},
				"south": {"uv": [4, 3.75, 5.625, 3.75], "texture": "#0"},
				"west": {"uv": [1.625, 3.625, 1.625, 3.625], "texture": "#0"},
				"up": {"uv": [6, 4, 4.375, 4], "texture": "#0"},
				"down": {"uv": [3.25, 3.625, 1.625, 3.625], "texture": "#0"}
			}
		},
		{
			"from": [1.5, 3.5, 2.75],
			"to": [14.75, 4, 3.25],
			"faces": {
				"north": {"uv": [4.125, 3.75, 5.75, 3.75], "texture": "#0"},
				"east": {"uv": [5, 2.375, 5, 2.375], "texture": "#0"},
				"south": {"uv": [4.25, 3.625, 5.875, 3.625], "texture": "#0"},
				"west": {"uv": [6.625, 2.375, 6.625, 2.375], "texture": "#0"},
				"up": {"uv": [6.125, 3.5, 4.5, 3.5], "texture": "#0"},
				"down": {"uv": [5.875, 3.625, 4.25, 3.625], "texture": "#0"}
			}
		},
		{
			"from": [1.15, 8.25, 2.5],
			"to": [2.15, 9.25, 3.5],
			"faces": {
				"north": {"uv": [2.25, 4.75, 2.375, 4.875], "texture": "#0"},
				"east": {"uv": [2.375, 4.375, 2.5, 4.5], "texture": "#0"},
				"south": {"uv": [2.125, 4.5, 2.25, 4.625], "texture": "#0"},
				"west": {"uv": [1.875, 4.625, 2, 4.75], "texture": "#0"},
				"up": {"uv": [1.375, 4.125, 1.25, 4], "texture": "#0"},
				"down": {"uv": [2.125, 4.625, 2, 4.75], "texture": "#0"}
			}
		},
		{
			"from": [14.1, 8.25, 2.5],
			"to": [15.1, 9.25, 3.5],
			"faces": {
				"north": {"uv": [2.25, 4.625, 2.375, 4.75], "texture": "#0"},
				"east": {"uv": [1.5, 4.125, 1.625, 4.25], "texture": "#0"},
				"south": {"uv": [2, 4.25, 2.125, 4.375], "texture": "#0"},
				"west": {"uv": [1.875, 4.5, 2, 4.625], "texture": "#0"},
				"up": {"uv": [2.125, 4.75, 2, 4.625], "texture": "#0"},
				"down": {"uv": [2.375, 3.875, 2.25, 4], "texture": "#0"}
			}
		},
		{
			"from": [1.25, 13.75, 2.5],
			"to": [2.75, 14.75, 3.5],
			"faces": {
				"north": {"uv": [1.5, 4.125, 1.625, 4.25], "texture": "#0"},
				"east": {"uv": [1.875, 4, 2, 4.125], "texture": "#0"},
				"south": {"uv": [1.75, 4.375, 1.875, 4.5], "texture": "#0"},
				"west": {"uv": [1.625, 4.375, 1.75, 4.5], "texture": "#0"},
				"up": {"uv": [1.25, 4.25, 1.125, 4.125], "texture": "#0"},
				"down": {"uv": [2.75, 4.375, 2.625, 4.5], "texture": "#0"}
			}
		},
		{
			"from": [13.6, 13.75, 2.5],
			"to": [15.1, 14.75, 3.5],
			"faces": {
				"north": {"uv": [1.5, 4.125, 1.625, 4.25], "texture": "#0"},
				"east": {"uv": [1.875, 4, 2, 4.125], "texture": "#0"},
				"south": {"uv": [1.75, 4.375, 1.875, 4.5], "texture": "#0"},
				"west": {"uv": [1.625, 4.375, 1.75, 4.5], "texture": "#0"},
				"up": {"uv": [1.25, 4.25, 1.125, 4.125], "texture": "#0"},
				"down": {"uv": [2.75, 4.375, 2.625, 4.5], "texture": "#0"}
			}
		},
		{
			"from": [13.6, 3.25, 2.5],
			"to": [15.1, 4.25, 3.5],
			"faces": {
				"north": {"uv": [1.5, 4.125, 1.625, 4.25], "texture": "#0"},
				"east": {"uv": [1.875, 4, 2, 4.125], "texture": "#0"},
				"south": {"uv": [1.75, 4.375, 1.875, 4.5], "texture": "#0"},
				"west": {"uv": [1.625, 4.375, 1.75, 4.5], "texture": "#0"},
				"up": {"uv": [1.25, 4.25, 1.125, 4.125], "texture": "#0"},
				"down": {"uv": [2.75, 4.375, 2.625, 4.5], "texture": "#0"}
			}
		},
		{
			"from": [1.25, 3.25, 2.5],
			"to": [2.75, 4.25, 3.5],
			"faces": {
				"north": {"uv": [1.5, 4.125, 1.625, 4.25], "texture": "#0"},
				"east": {"uv": [1.875, 4, 2, 4.125], "texture": "#0"},
				"south": {"uv": [1.75, 4.375, 1.875, 4.5], "texture": "#0"},
				"west": {"uv": [1.625, 4.375, 1.75, 4.5], "texture": "#0"},
				"up": {"uv": [1.25, 4.25, 1.125, 4.125], "texture": "#0"},
				"down": {"uv": [2.75, 4.375, 2.625, 4.5], "texture": "#0"}
			}
		},
		{
			"from": [7.25, 3.25, 2.5],
			"to": [8.75, 4.25, 3.5],
			"faces": {
				"north": {"uv": [1.5, 4.125, 1.625, 4.25], "texture": "#0"},
				"east": {"uv": [1.875, 4, 2, 4.125], "texture": "#0"},
				"south": {"uv": [1.75, 4.375, 1.875, 4.5], "texture": "#0"},
				"west": {"uv": [1.625, 4.375, 1.75, 4.5], "texture": "#0"},
				"up": {"uv": [1.25, 4.25, 1.125, 4.125], "texture": "#0"},
				"down": {"uv": [2.75, 4.375, 2.625, 4.5], "texture": "#0"}
			}
		},
		{
			"from": [7.25, 13.75, 2.5],
			"to": [8.75, 14.75, 3.5],
			"faces": {
				"north": {"uv": [1.5, 4.125, 1.625, 4.25], "texture": "#0"},
				"east": {"uv": [1.875, 4, 2, 4.125], "texture": "#0"},
				"south": {"uv": [1.75, 4.375, 1.875, 4.5], "texture": "#0"},
				"west": {"uv": [1.625, 4.375, 1.75, 4.5], "texture": "#0"},
				"up": {"uv": [1.25, 4.25, 1.125, 4.125], "texture": "#0"},
				"down": {"uv": [2.75, 4.375, 2.625, 4.5], "texture": "#0"}
			}
		},
		{
			"from": [1.35, 3.35, 2.65],
			"to": [3.1, 4.1, 3.4],
			"faces": {
				"north": {"uv": [1.5, 4.125, 1.625, 4.25], "texture": "#0"},
				"east": {"uv": [1.875, 4, 2, 4.125], "texture": "#0"},
				"south": {"uv": [1.75, 4.375, 1.875, 4.5], "texture": "#0"},
				"west": {"uv": [1.625, 4.375, 1.75, 4.5], "texture": "#0"},
				"up": {"uv": [1.25, 4.25, 1.125, 4.125], "texture": "#0"},
				"down": {"uv": [2.75, 4.375, 2.625, 4.5], "texture": "#0"}
			}
		},
		{
			"from": [6.95, 3.35, 2.65],
			"to": [9.1, 4.1, 3.4],
			"faces": {
				"north": {"uv": [1.5, 4.125, 1.625, 4.25], "texture": "#0"},
				"east": {"uv": [1.875, 4, 2, 4.125], "texture": "#0"},
				"south": {"uv": [1.75, 4.375, 1.875, 4.5], "texture": "#0"},
				"west": {"uv": [1.625, 4.375, 1.75, 4.5], "texture": "#0"},
				"up": {"uv": [1.25, 4.25, 1.125, 4.125], "texture": "#0"},
				"down": {"uv": [2.75, 4.375, 2.625, 4.5], "texture": "#0"}
			}
		},
		{
			"from": [6.95, 13.85, 2.65],
			"to": [9.1, 14.6, 3.4],
			"faces": {
				"north": {"uv": [1.5, 4.125, 1.625, 4.25], "texture": "#0"},
				"east": {"uv": [1.875, 4, 2, 4.125], "texture": "#0"},
				"south": {"uv": [1.75, 4.375, 1.875, 4.5], "texture": "#0"},
				"west": {"uv": [1.625, 4.375, 1.75, 4.5], "texture": "#0"},
				"up": {"uv": [1.25, 4.25, 1.125, 4.125], "texture": "#0"},
				"down": {"uv": [2.75, 4.375, 2.625, 4.5], "texture": "#0"}
			}
		},
		{
			"from": [13.2, 3.35, 2.65],
			"to": [14.95, 4.1, 3.4],
			"faces": {
				"north": {"uv": [1.5, 4.125, 1.625, 4.25], "texture": "#0"},
				"east": {"uv": [1.875, 4, 2, 4.125], "texture": "#0"},
				"south": {"uv": [1.75, 4.375, 1.875, 4.5], "texture": "#0"},
				"west": {"uv": [1.625, 4.375, 1.75, 4.5], "texture": "#0"},
				"up": {"uv": [1.25, 4.25, 1.125, 4.125], "texture": "#0"},
				"down": {"uv": [2.75, 4.375, 2.625, 4.5], "texture": "#0"}
			}
		},
		{
			"from": [13.2, 13.9, 2.65],
			"to": [14.95, 14.65, 3.4],
			"faces": {
				"north": {"uv": [1.5, 4.125, 1.625, 4.25], "texture": "#0"},
				"east": {"uv": [1.875, 4, 2, 4.125], "texture": "#0"},
				"south": {"uv": [1.75, 4.375, 1.875, 4.5], "texture": "#0"},
				"west": {"uv": [1.625, 4.375, 1.75, 4.5], "texture": "#0"},
				"up": {"uv": [1.25, 4.25, 1.125, 4.125], "texture": "#0"},
				"down": {"uv": [2.75, 4.375, 2.625, 4.5], "texture": "#0"}
			}
		},
		{
			"from": [14.1, 13.4, 2.65],
			"to": [14.85, 14.15, 3.4],
			"faces": {
				"north": {"uv": [1.5, 4.125, 1.625, 4.25], "texture": "#0"},
				"east": {"uv": [1.875, 4, 2, 4.125], "texture": "#0"},
				"south": {"uv": [1.75, 4.375, 1.875, 4.5], "texture": "#0"},
				"west": {"uv": [1.625, 4.375, 1.75, 4.5], "texture": "#0"},
				"up": {"uv": [1.25, 4.25, 1.125, 4.125], "texture": "#0"},
				"down": {"uv": [2.75, 4.375, 2.625, 4.5], "texture": "#0"}
			}
		},
		{
			"from": [14.1, 3.9, 2.65],
			"to": [14.85, 4.65, 3.4],
			"faces": {
				"north": {"uv": [1.5, 4.125, 1.625, 4.25], "texture": "#0"},
				"east": {"uv": [1.875, 4, 2, 4.125], "texture": "#0"},
				"south": {"uv": [1.75, 4.375, 1.875, 4.5], "texture": "#0"},
				"west": {"uv": [1.625, 4.375, 1.75, 4.5], "texture": "#0"},
				"up": {"uv": [1.25, 4.25, 1.125, 4.125], "texture": "#0"},
				"down": {"uv": [2.75, 4.375, 2.625, 4.5], "texture": "#0"}
			}
		},
		{
			"from": [1.35, 3.9, 2.65],
			"to": [2.1, 4.65, 3.4],
			"faces": {
				"north": {"uv": [1.5, 4.125, 1.625, 4.25], "texture": "#0"},
				"east": {"uv": [1.875, 4, 2, 4.125], "texture": "#0"},
				"south": {"uv": [1.75, 4.375, 1.875, 4.5], "texture": "#0"},
				"west": {"uv": [1.625, 4.375, 1.75, 4.5], "texture": "#0"},
				"up": {"uv": [1.25, 4.25, 1.125, 4.125], "texture": "#0"},
				"down": {"uv": [2.75, 4.375, 2.625, 4.5], "texture": "#0"}
			}
		},
		{
			"from": [1.35, 13.4, 2.65],
			"to": [2.1, 14.15, 3.4],
			"faces": {
				"north": {"uv": [1.5, 4.125, 1.625, 4.25], "texture": "#0"},
				"east": {"uv": [1.875, 4, 2, 4.125], "texture": "#0"},
				"south": {"uv": [1.75, 4.375, 1.875, 4.5], "texture": "#0"},
				"west": {"uv": [1.625, 4.375, 1.75, 4.5], "texture": "#0"},
				"up": {"uv": [1.25, 4.25, 1.125, 4.125], "texture": "#0"},
				"down": {"uv": [2.75, 4.375, 2.625, 4.5], "texture": "#0"}
			}
		},
		{
			"from": [1.45, 13.9, 2.65],
			"to": [3.2, 14.65, 3.4],
			"faces": {
				"north": {"uv": [1.5, 4.125, 1.625, 4.25], "texture": "#0"},
				"east": {"uv": [1.875, 4, 2, 4.125], "texture": "#0"},
				"south": {"uv": [1.75, 4.375, 1.875, 4.5], "texture": "#0"},
				"west": {"uv": [1.625, 4.375, 1.75, 4.5], "texture": "#0"},
				"up": {"uv": [1.25, 4.25, 1.125, 4.125], "texture": "#0"},
				"down": {"uv": [2.75, 4.375, 2.625, 4.5], "texture": "#0"}
			}
		},
		{
			"from": [3.6, 6, 8],
			"to": [12.6, 12, 10],
			"faces": {
				"north": {"uv": [1.5, 0.375, 2.625, 1.125], "texture": "#0"},
				"east": {"uv": [2.875, 0.25, 3.125, 1], "texture": "#0"},
				"south": {"uv": [1.5, 0.375, 2.625, 1.125], "texture": "#0"},
				"west": {"uv": [2.75, 0.375, 3, 1.125], "texture": "#0"},
				"up": {"uv": [2.5, 1, 1.375, 0.75], "texture": "#0"},
				"down": {"uv": [2, 0.375, 0.875, 0.625], "texture": "#0"}
			}
		},
		{
			"from": [3.85, 6.25, 10],
			"to": [12.35, 11.75, 12],
			"faces": {
				"north": {"uv": [6, 1.625, 7, 2.25], "texture": "#0"},
				"east": {"uv": [1.75, 1.75, 2, 2.375], "texture": "#0"},
				"south": {"uv": [0.875, 1.75, 1.875, 2.375], "texture": "#0"},
				"west": {"uv": [2.875, 1.875, 3.125, 2.5], "texture": "#0"},
				"up": {"uv": [2.125, 2, 1.125, 1.75], "texture": "#0"},
				"down": {"uv": [2.5, 1.875, 1.5, 2.125], "texture": "#0"}
			}
		},
		{
			"from": [4.6, 6.75, 12],
			"to": [11.6, 11.25, 13],
			"faces": {
				"north": {"uv": [5.875, 3.75, 6.75, 4.25], "texture": "#0"},
				"east": {"uv": [2.625, 1.75, 2.75, 2.25], "texture": "#0"},
				"south": {"uv": [0.75, 1.875, 1.625, 2.375], "texture": "#0"},
				"west": {"uv": [2.375, 1.75, 2.5, 2.25], "texture": "#0"},
				"up": {"uv": [2.375, 2.25, 1.5, 2.125], "texture": "#0"},
				"down": {"uv": [2.375, 2, 1.5, 2.125], "texture": "#0"}
			}
		},
		{
			"from": [6.85, 7.75, 13],
			"to": [9.35, 10.25, 14],
			"faces": {
				"north": {"uv": [0.125, 7.625, 0.375, 7.875], "texture": "#0"},
				"east": {"uv": [1.75, 1.875, 1.875, 2.125], "texture": "#0"},
				"south": {"uv": [1.25, 2, 1.5, 2.25], "texture": "#0"},
				"west": {"uv": [1.5, 2.125, 1.625, 2.375], "texture": "#0"},
				"up": {"uv": [2.5, 2, 2.25, 1.875], "texture": "#0"},
				"down": {"uv": [2.5, 2, 2.25, 2.125], "texture": "#0"}
			}
		},
		{
			"from": [0.7, 8.25, 9.9],
			"to": [15.7, 9.25, 10.9],
			"faces": {
				"north": {"uv": [3.875, 3.5, 5.75, 3.625], "texture": "#0"},
				"east": {"uv": [3.75, 3.25, 3.875, 3.375], "texture": "#0"},
				"south": {"uv": [3.875, 3.125, 5.75, 3.25], "texture": "#0"},
				"west": {"uv": [6.125, 4.125, 6.25, 4.25], "texture": "#0"},
				"up": {"uv": [5.75, 3.375, 3.875, 3.25], "texture": "#0"},
				"down": {"uv": [5.625, 3.25, 3.75, 3.375], "texture": "#0"}
			}
		},
		{
			"from": [4.6, 6, 10],
			"to": [11.6, 12, 10.5],
			"faces": {
				"north": {"uv": [2, 4.375, 2.875, 5.125], "texture": "#0"},
				"east": {"uv": [2.875, 0.5, 2.875, 1.25], "texture": "#0"},
				"south": {"uv": [1.625, 0.375, 2.5, 1.125], "texture": "#0"},
				"west": {"uv": [2.5, 0.375, 2.5, 1.125], "texture": "#0"},
				"up": {"uv": [2.5, 0.5, 1.625, 0.5], "texture": "#0"},
				"down": {"uv": [1.75, 0.75, 0.875, 0.75], "texture": "#0"}
			}
		},
		{
			"from": [6.6, 6, 11],
			"to": [9.6, 12, 11.5],
			"faces": {
				"north": {"uv": [3, 5.25, 3.375, 6], "texture": "#0"},
				"east": {"uv": [1.75, 0.25, 1.75, 1], "texture": "#0"},
				"south": {"uv": [2, 0.25, 2.375, 1], "texture": "#0"},
				"west": {"uv": [2.5, 0.375, 2.5, 1.125], "texture": "#0"},
				"up": {"uv": [2.375, 0.75, 2, 0.75], "texture": "#0"},
				"down": {"uv": [2, 0.5, 1.625, 0.5], "texture": "#0"}
			}
		},
		{
			"from": [5.6, 6, 10.5],
			"to": [10.6, 12, 11],
			"faces": {
				"north": {"uv": [6.5, 4.375, 7.125, 5.125], "texture": "#0"},
				"east": {"uv": [2.5, 0.25, 2.5, 1], "texture": "#0"},
				"south": {"uv": [2, 0.375, 2.625, 1.125], "texture": "#0"},
				"west": {"uv": [2.875, 0.375, 2.875, 1.125], "texture": "#0"},
				"up": {"uv": [1.875, 0.75, 1.25, 0.75], "texture": "#0"},
				"down": {"uv": [2.75, 1, 2.125, 1], "texture": "#0"}
			}
		},
		{
			"from": [3.35, 8, 9.25],
			"to": [4.35, 10, 11.25],
			"faces": {
				"north": {"uv": [1.75, 4.25, 1.875, 4.5], "texture": "#0"},
				"east": {"uv": [2.5, 6.375, 2.75, 6.625], "texture": "#0"},
				"south": {"uv": [2.25, 3.875, 2.375, 4.125], "texture": "#0"},
				"west": {"uv": [2.25, 4.5, 2.5, 4.75], "texture": "#0"},
				"up": {"uv": [2.125, 4.125, 2, 3.875], "texture": "#0"},
				"down": {"uv": [2.625, 4.75, 2.5, 5], "texture": "#0"}
			}
		},
		{
			"from": [11.85, 8, 9.25],
			"to": [12.85, 10, 11.25],
			"faces": {
				"north": {"uv": [2, 4.625, 2.125, 4.875], "texture": "#0"},
				"east": {"uv": [1.125, 4.5, 1.375, 4.75], "texture": "#0"},
				"south": {"uv": [2.125, 4.125, 2.25, 4.375], "texture": "#0"},
				"west": {"uv": [2.125, 6.875, 2.375, 7.125], "texture": "#0"},
				"up": {"uv": [1.625, 4.875, 1.5, 4.625], "texture": "#0"},
				"down": {"uv": [1.75, 4.25, 1.625, 4.5], "texture": "#0"}
			}
		},
		{
			"from": [7.35, 8.25, 13.5],
			"to": [8.85, 9.75, 14.5],
			"faces": {
				"north": {"uv": [4.625, 4.25, 4.75, 4.375], "texture": "#0"},
				"east": {"uv": [4.875, 3.75, 5, 3.875], "texture": "#0"},
				"south": {"uv": [4.625, 4.625, 4.75, 4.75], "texture": "#0"},
				"west": {"uv": [6.25, 4.375, 6.375, 4.5], "texture": "#0"},
				"up": {"uv": [4.75, 4.625, 4.625, 4.5], "texture": "#0"},
				"down": {"uv": [6.125, 4.625, 6, 4.75], "texture": "#0"}
			}
		},
		{
			"from": [7.6, 12, 8.5],
			"to": [8.6, 12.5, 9.5],
			"faces": {
				"north": {"uv": [1.625, 2.25, 1.75, 2.25], "texture": "#0"},
				"east": {"uv": [1.5, 2.25, 1.625, 2.25], "texture": "#0"},
				"south": {"uv": [1.875, 2.125, 2, 2.125], "texture": "#0"},
				"west": {"uv": [2.125, 2.125, 2.25, 2.125], "texture": "#0"},
				"up": {"uv": [2.375, 2, 2.25, 1.875], "texture": "#0"},
				"down": {"uv": [5.375, 8.5, 5.25, 8.625], "texture": "#0"}
			}
		},
		{
			"from": [7.35, 11.75, 8.25],
			"to": [8.85, 12.25, 9.75],
			"faces": {
				"north": {"uv": [2.125, 2.125, 2.25, 2.125], "texture": "#0"},
				"east": {"uv": [1.5, 2.25, 1.625, 2.25], "texture": "#0"},
				"south": {"uv": [1.75, 2.375, 1.875, 2.375], "texture": "#0"},
				"west": {"uv": [2, 2.25, 2.125, 2.25], "texture": "#0"},
				"up": {"uv": [2.125, 2.25, 2, 2.125], "texture": "#0"},
				"down": {"uv": [2.875, 8.5, 2.75, 8.625], "texture": "#0"}
			}
		},
		{
			"from": [10.85, 12, 8.5],
			"to": [11.85, 12.5, 9.5],
			"faces": {
				"north": {"uv": [1.625, 2.25, 1.75, 2.25], "texture": "#0"},
				"east": {"uv": [1.5, 2.25, 1.625, 2.25], "texture": "#0"},
				"south": {"uv": [1.875, 2.125, 2, 2.125], "texture": "#0"},
				"west": {"uv": [2.125, 2.125, 2.25, 2.125], "texture": "#0"},
				"up": {"uv": [2.375, 2, 2.25, 1.875], "texture": "#0"},
				"down": {"uv": [5.375, 8.5, 5.25, 8.625], "texture": "#0"}
			}
		},
		{
			"from": [10.6, 11.75, 8.25],
			"to": [12.1, 12.25, 9.75],
			"faces": {
				"north": {"uv": [2.125, 2.125, 2.25, 2.125], "texture": "#0"},
				"east": {"uv": [1.5, 2.25, 1.625, 2.25], "texture": "#0"},
				"south": {"uv": [1.75, 2.375, 1.875, 2.375], "texture": "#0"},
				"west": {"uv": [2, 2.25, 2.125, 2.25], "texture": "#0"},
				"up": {"uv": [2.125, 2.25, 2, 2.125], "texture": "#0"},
				"down": {"uv": [2.875, 8.5, 2.75, 8.625], "texture": "#0"}
			}
		},
		{
			"from": [4.35, 12, 8.5],
			"to": [5.35, 12.5, 9.5],
			"faces": {
				"north": {"uv": [1.625, 2.25, 1.75, 2.25], "texture": "#0"},
				"east": {"uv": [1.5, 2.25, 1.625, 2.25], "texture": "#0"},
				"south": {"uv": [1.875, 2.125, 2, 2.125], "texture": "#0"},
				"west": {"uv": [2.125, 2.125, 2.25, 2.125], "texture": "#0"},
				"up": {"uv": [2.375, 2, 2.25, 1.875], "texture": "#0"},
				"down": {"uv": [5.375, 8.5, 5.25, 8.625], "texture": "#0"}
			}
		},
		{
			"from": [4.1, 11.75, 8.25],
			"to": [5.6, 12.25, 9.75],
			"faces": {
				"north": {"uv": [2.125, 2.125, 2.25, 2.125], "texture": "#0"},
				"east": {"uv": [1.5, 2.25, 1.625, 2.25], "texture": "#0"},
				"south": {"uv": [1.75, 2.375, 1.875, 2.375], "texture": "#0"},
				"west": {"uv": [2, 2.25, 2.125, 2.25], "texture": "#0"},
				"up": {"uv": [2.125, 2.25, 2, 2.125], "texture": "#0"},
				"down": {"uv": [2.875, 8.5, 2.75, 8.625], "texture": "#0"}
			}
		},
		{
			"from": [5.1, 0, 5],
			"to": [11.1, 0.5, 11],
			"faces": {
				"north": {"uv": [1.5, 1, 2.25, 1], "rotation": 180, "texture": "#0"},
				"east": {"uv": [1.5, 0.75, 2.25, 0.75], "rotation": 180, "texture": "#0"},
				"south": {"uv": [2.125, 0.625, 2.875, 0.625], "rotation": 180, "texture": "#0"},
				"west": {"uv": [1.625, 0.625, 2.375, 0.625], "rotation": 180, "texture": "#0"},
				"up": {"uv": [2.25, 0.375, 1.5, 1.125], "texture": "#0"},
				"down": {"uv": [1.75, 1, 1, 0.25], "texture": "#0"}
			}
		},
		{
			"from": [7, 0.5, 7],
			"to": [9, 1.5, 9],
			"faces": {
				"north": {"uv": [5, 4.125, 5.25, 4.25], "rotation": 180, "texture": "#0"},
				"east": {"uv": [4.875, 4, 5.125, 4.125], "rotation": 180, "texture": "#0"},
				"south": {"uv": [4.875, 4.125, 5.125, 4.25], "rotation": 180, "texture": "#0"},
				"west": {"uv": [4.875, 4, 5.125, 4.125], "rotation": 180, "texture": "#0"},
				"up": {"uv": [4.75, 3.875, 4.5, 4.125], "texture": "#0"},
				"down": {"uv": [4.5, 5.5, 4.25, 5.25], "texture": "#0"}
			}
		},
		{
			"from": [6, 0.5, 6],
			"to": [10, 1, 10],
			"faces": {
				"north": {"uv": [1.5, 4.875, 2, 4.875], "rotation": 180, "texture": "#0"},
				"east": {"uv": [1.375, 4.5, 1.875, 4.5], "rotation": 180, "texture": "#0"},
				"south": {"uv": [0.5, 4.875, 1, 4.875], "rotation": 180, "texture": "#0"},
				"west": {"uv": [1, 4.875, 1.5, 4.875], "rotation": 180, "texture": "#0"},
				"up": {"uv": [1.5, 4.375, 1, 4.875], "texture": "#0"},
				"down": {"uv": [1, 4.875, 0.5, 4.375], "texture": "#0"}
			}
		},
		{
			"from": [2.1, 7.87422, 9.73031],
			"to": [3.1, 9.87422, 11.73031],
			"rotation": {"angle": -22.5, "axis": "x", "origin": [8.06, 8.34895, 10.40666]},
			"faces": {
				"north": {"uv": [2.25, 4, 2.375, 4.25], "rotation": 180, "texture": "#0"},
				"east": {"uv": [2.125, 4.375, 2.375, 4.625], "rotation": 180, "texture": "#0"},
				"south": {"uv": [2, 4.375, 2.125, 4.625], "rotation": 180, "texture": "#0"},
				"west": {"uv": [0.875, 4, 1.125, 4.25], "rotation": 180, "texture": "#0"},
				"up": {"uv": [2.125, 3.75, 2, 4], "texture": "#0"},
				"down": {"uv": [2, 4.625, 1.875, 4.375], "texture": "#0"}
			}
		},
		{
			"from": [13.1, 7.87422, 9.73031],
			"to": [14.1, 9.87422, 11.73031],
			"rotation": {"angle": -22.5, "axis": "x", "origin": [8.06, 8.34895, 10.40666]},
			"faces": {
				"north": {"uv": [2.5, 4.125, 2.625, 4.375], "rotation": 180, "texture": "#0"},
				"east": {"uv": [2, 3.875, 2.25, 4.125], "rotation": 180, "texture": "#0"},
				"south": {"uv": [1.875, 4.25, 2, 4.5], "rotation": 180, "texture": "#0"},
				"west": {"uv": [2.25, 4.25, 2.5, 4.5], "rotation": 180, "texture": "#0"},
				"up": {"uv": [2.625, 4.5, 2.5, 4.75], "texture": "#0"},
				"down": {"uv": [2.25, 4.75, 2.125, 4.5], "texture": "#0"}
			}
		},
		{
			"from": [2.35, 2.72422, 10.48031],
			"to": [2.85, 10.72422, 10.98031],
			"rotation": {"angle": -22.5, "axis": "x", "origin": [8.06, 8.34895, 10.40666]},
			"faces": {
				"north": {"uv": [4, 3.625, 4, 4.5], "rotation": 180, "texture": "#0"},
				"east": {"uv": [4.75, 3.75, 4.75, 4.625], "rotation": 180, "texture": "#0"},
				"south": {"uv": [5.75, 3.75, 5.75, 4.625], "rotation": 180, "texture": "#0"},
				"west": {"uv": [5.625, 3.75, 5.625, 4.625], "rotation": 180, "texture": "#0"},
				"up": {"uv": [5.25, 3.75, 5.25, 3.75], "texture": "#0"},
				"down": {"uv": [1.25, 7.5, 1.25, 7.5], "texture": "#0"}
			}
		},
		{
			"from": [13.35, 2.47422, 10.48031],
			"to": [13.85, 10.47422, 10.98031],
			"rotation": {"angle": -22.5, "axis": "x", "origin": [8.06, 8.34895, 10.40666]},
			"faces": {
				"north": {"uv": [6, 3.625, 6, 4.5], "rotation": 180, "texture": "#0"},
				"east": {"uv": [4.875, 3.5, 4.875, 4.375], "rotation": 180, "texture": "#0"},
				"south": {"uv": [4.625, 3.75, 4.625, 4.625], "rotation": 180, "texture": "#0"},
				"west": {"uv": [3.875, 3.875, 3.875, 4.75], "rotation": 180, "texture": "#0"},
				"up": {"uv": [3.875, 3.75, 3.875, 3.75], "texture": "#0"},
				"down": {"uv": [0.75, 7.5, 0.75, 7.5], "texture": "#0"}
			}
		},
		{
			"from": [3.35, 2.22422, 10.48031],
			"to": [12.85, 2.72422, 10.98031],
			"rotation": {"angle": -22.5, "axis": "x", "origin": [8.06, 8.34895, 10.40666]},
			"faces": {
				"north": {"uv": [5.125, 4.375, 6.25, 4.375], "rotation": 180, "texture": "#0"},
				"east": {"uv": [4, 4.375, 4, 4.375], "rotation": 180, "texture": "#0"},
				"south": {"uv": [4, 4.375, 5.125, 4.375], "rotation": 180, "texture": "#0"},
				"west": {"uv": [5.125, 4.375, 5.125, 4.375], "rotation": 180, "texture": "#0"},
				"up": {"uv": [6.25, 4.375, 5.125, 4.375], "texture": "#0"},
				"down": {"uv": [5.125, 4.375, 4, 4.375], "texture": "#0"}
			}
		},
		{
			"from": [2.1, 1.97422, 10.23031],
			"to": [3.6, 2.97422, 11.23031],
			"rotation": {"angle": -22.5, "axis": "x", "origin": [8.06, 8.34895, 10.40666]},
			"faces": {
				"north": {"uv": [1.5, 4.5, 1.625, 4.625], "rotation": 180, "texture": "#0"},
				"east": {"uv": [1.625, 4.25, 1.75, 4.375], "rotation": 180, "texture": "#0"},
				"south": {"uv": [2.125, 4.625, 2.25, 4.75], "rotation": 180, "texture": "#0"},
				"west": {"uv": [1.625, 3.875, 1.75, 4], "rotation": 180, "texture": "#0"},
				"up": {"uv": [2, 4.25, 1.875, 4.375], "texture": "#0"},
				"down": {"uv": [1.875, 4.125, 1.75, 4], "texture": "#0"}
			}
		},
		{
			"from": [12.6, 1.97422, 10.23031],
			"to": [14.1, 2.97422, 11.23031],
			"rotation": {"angle": -22.5, "axis": "x", "origin": [8.06, 8.34895, 10.40666]},
			"faces": {
				"north": {"uv": [2.375, 4.375, 2.5, 4.5], "rotation": 180, "texture": "#0"},
				"east": {"uv": [2, 3.875, 2.125, 4], "rotation": 180, "texture": "#0"},
				"south": {"uv": [2, 4.5, 2.125, 4.625], "rotation": 180, "texture": "#0"},
				"west": {"uv": [2.25, 4.375, 2.375, 4.5], "rotation": 180, "texture": "#0"},
				"up": {"uv": [2.375, 4.625, 2.25, 4.75], "texture": "#0"},
				"down": {"uv": [2, 4.625, 1.875, 4.5], "texture": "#0"}
			}
		},
		{
			"from": [7.35, 2.22422, 6.23031],
			"to": [7.85, 2.72422, 11.73031],
			"rotation": {"angle": -22.5, "axis": "x", "origin": [8.06, 8.34895, 10.40666]},
			"faces": {
				"north": {"uv": [4.125, 4.125, 4.125, 4.125], "rotation": 180, "texture": "#0"},
				"east": {"uv": [4.75, 3.5, 5.375, 3.5], "rotation": 180, "texture": "#0"},
				"south": {"uv": [5.125, 4, 5.125, 4], "rotation": 180, "texture": "#0"},
				"west": {"uv": [4.25, 4, 4.875, 4], "rotation": 180, "texture": "#0"},
				"up": {"uv": [4.875, 3.75, 4.875, 4.375], "texture": "#0"},
				"down": {"uv": [4.75, 4.125, 4.75, 3.5], "texture": "#0"}
			}
		},
		{
			"from": [8.1, 2.22422, 6.23031],
			"to": [8.6, 2.72422, 11.73031],
			"rotation": {"angle": -22.5, "axis": "x", "origin": [8.06, 8.34895, 10.40666]},
			"faces": {
				"north": {"uv": [5.125, 4.625, 5.125, 4.625], "rotation": 180, "texture": "#0"},
				"east": {"uv": [4.375, 3.875, 5, 3.875], "rotation": 180, "texture": "#0"},
				"south": {"uv": [5.25, 3.875, 5.25, 3.875], "rotation": 180, "texture": "#0"},
				"west": {"uv": [5, 4.125, 5.625, 4.125], "rotation": 180, "texture": "#0"},
				"up": {"uv": [4.5, 3.875, 4.5, 4.5], "texture": "#0"},
				"down": {"uv": [5.25, 4.75, 5.25, 4.125], "texture": "#0"}
			}
		},
		{
			"from": [6.95, 1.72422, 9.98031],
			"to": [8.95, 3.22422, 11.48031],
			"rotation": {"angle": -22.5, "axis": "x", "origin": [8.06, 8.34895, 10.40666]},
			"faces": {
				"north": {"uv": [1.625, 4.25, 1.875, 4.375], "rotation": 180, "texture": "#0"},
				"east": {"uv": [1.875, 4.125, 2, 4.25], "rotation": 180, "texture": "#0"},
				"south": {"uv": [1.625, 3.75, 1.875, 3.875], "rotation": 180, "texture": "#0"},
				"west": {"uv": [1.5, 4.125, 1.625, 4.25], "rotation": 180, "texture": "#0"},
				"up": {"uv": [2.125, 4.375, 1.875, 4.5], "texture": "#0"},
				"down": {"uv": [1.875, 4.375, 1.625, 4.25], "texture": "#0"}
			}
		}
	],
	"display": {
		"thirdperson_righthand": {
			"rotation": [75, 45, 0],
			"translation": [0, 2.5, 0],
			"scale": [0.375, 0.375, 0.375]
		},
		"thirdperson_lefthand": {
			"rotation": [75, 45, 0],
			"translation": [0, 2.5, 0],
			"scale": [0.375, 0.375, 0.375]
		},
		"firstperson_righthand": {
			"rotation": [0, 45, 0],
			"translation": [3.5, 0, 0],
			"scale": [0.4, 0.4, 0.4]
		},
		"firstperson_lefthand": {
			"rotation": [0, 8, 0],
			"translation": [2.25, 0, 0],
			"scale": [0.4, 0.4, 0.4]
		},
		"ground": {
			"translation": [0, 3, 0],
			"scale": [0.25, 0.25, 0.25]
		},
		"gui": {
			"rotation": [30, 225, 0],
			"scale": [0.625, 0.625, 0.625]
		},
		"head": {
			"translation": [0, 0, -2.5]
		},
		"fixed": {
			"scale": [0.5, 0.5, 0.5]
		}
	},
	"groups": [
		{
			"name": "brass_monitor_standing",
			"children": [
				{
					"name": "glow_screen2",
					"children": [0]
				},
				{
					"name": "glow_magnifier2",
					"children": [1]
				},
				{
					"name": "glow_lamp2",
					"children": [
						{
							"name": "lamp_1",
							"children": [2, 3, 4]
						},
						{
							"name": "lamp_2",
							"children": [5, 6, 7]
						},
						{
							"name": "lamp_3",
							"children": [8, 9, 10]
						}
					]
				},
				{
					"name": "brass_monitor_stand",
					"children": [
						{
							"name": "lens2",
							"children": [
								{
									"name": "lens_arm",
									"children": [11, 12]
								},
								{
									"name": "lens_arm2",
									"children": [13, 14]
								},
								{
									"name": "frame",
									"children": [15, 16, 17, 18, 19, 20, 21, 22, 23, 24, 25, 26, 27, 28, 29, 30, 31, 32, 33, 34, 35, 36]
								}
							]
						},
						{
							"name": "tube2",
							"children": [37, 38, 39, 40, 41, 42, 43, 44, 45, 46, 47]
						},
						{
							"name": "lamp_mounts2",
							"children": [
								{
									"name": "mount1",
									"children": [48, 49]
								},
								{
									"name": "mount2",
									"children": [50, 51]
								},
								{
									"name": "mount3",
									"children": [52, 53]
								}
							]
						},
						{
							"name": "attach_point_standing",
							"children": [54, 55, 56]
						},
						{
							"name": "mount_stand",
							"children": [57, 58, 59, 60, 61, 62, 63,
								{
									"name": "dual_arm_pivot",
									"children": [64, 65, 66]
								}
							]
						}
					]
				}
			]
		}
	]
}