{
    "variants": {
        "facing=up,push=true": { "model": "tardis:block/roundel_tap", "x": -90 },
        "facing=down,push=true": { "model": "tardis:block/roundel_tap", "x": 90 },
        "facing=north,push=true": { "model": "tardis:block/roundel_tap", "y": 0 },
        "facing=south,push=true": { "model": "tardis:block/roundel_tap", "y": 180 },
        "facing=west,push=true": { "model": "tardis:block/roundel_tap", "y": 270 },
        "facing=east,push=true": { "model": "tardis:block/roundel_tap", "y": 90 },
        "facing=up,push=false": { "model": "tardis:block/roundel_tap", "x": -90 },
        "facing=down,push=false": { "model": "tardis:block/roundel_tap", "x": 90 },
        "facing=north,push=false": { "model": "tardis:block/roundel_tap", "y": 0 },
        "facing=south,push=false": { "model": "tardis:block/roundel_tap", "y": 180 },
        "facing=west,push=false": { "model": "tardis:block/roundel_tap", "y": 270 },
        "facing=east,push=false": { "model": "tardis:block/roundel_tap", "y": 90 }
    }
}
