{
  "type":"normal",
  "text":"Dematerialisation Circuit. The most important sub-system, allowing your time-ship to enter and exit the vortex. It is repaired by combining it with an Ender Pearl in the Quantiscope"
}