{
  "replace": false,
  "values": [
    "tardis:control",
    "tardis:interior_door",
    "tardis:chair",
    "tardis:tardis",
    "tardis:laser",
    "tardis:display_tardis",
    "tardis:tardis_backdoor"
  ]
}